
  {
    "realm" : "dev.app",
    "auth-server-url" : "https://dev.tricefal.io/auth",
    "clientId" : "dev.backend.bearer",
    "resource" : "nodejs-connect",
    "public-client" : true,
    "bearerOnly": true,
    "credentials": {
        "secret": "3ce3d1c5-ab8f-412d-9880-217cfa2f2e7a"
  }
  }